<svg version="1.1" xmlns="http://www.w3.org/2000/svg" xmlns:xlink="http://www.w3.org/1999/xlink" width="16" height="16" viewBox="0 0 16 16">
<path fill="#xxx" d="M0 1h16v3h-16v-3z"></path>
<path fill="#xxx" d="M0 6h16v3h-16v-3z"></path>
<path fill="#xxx" d="M0 11h16v3h-16v-3z"></path>
</svg>
