<svg xmlns="http://www.w3.org/2000/svg" width="20" height="20" viewBox="0 0 20 20">
  <metadata><?xpacket begin="﻿" id="W5M0MpCehiHzreSzNTczkc9d"?>
<x:xmpmeta xmlns:x="adobe:ns:meta/" x:xmptk="Adobe XMP Core 5.6-c138 79.159824, 2016/09/14-01:09:01        ">
   <rdf:RDF xmlns:rdf="http://www.w3.org/1999/02/22-rdf-syntax-ns#">
      <rdf:Description rdf:about=""/>
   </rdf:RDF>
</x:xmpmeta>
                                                                                                    
                                                                                                    
                                                                                                    
                                                                                                    
                                                                                                    
                                                                                                    
                                                                                                    
                                                                                                    
                                                                                                    
                                                                                                    
                                                                                                    
                                                                                                    
                                                                                                    
                                                                                                    
                                                                                                    
                                                                                                    
                                                                                                    
                                                                                                    
                                                                                                    
                                                                                                    
                           
<?xpacket end="w"?></metadata>
<defs>
    <style>
      .cls-1 {
        fill: #fff;
        fill-rule: evenodd;
      }
    </style>
  </defs>
  <path id="Фигура_37_копия_3" data-name="Фигура 37 копия 3" class="cls-1" d="M960.741,4314H948.2a1.254,1.254,0,0,1-1.258-1.25v-2.41a5.09,5.09,0,0,1-1,.09,3.938,3.938,0,0,1-3.345-1.84,3.985,3.985,0,0,1-.163-3.94,3.59,3.59,0,0,1,1.681-1.66,4.52,4.52,0,0,1,2.825-.39v-2.34a1.254,1.254,0,0,1,1.258-1.25h2.434a5.042,5.042,0,0,1-.112-1.07,3.919,3.919,0,0,1,1.853-3.34,4.037,4.037,0,0,1,3.958-.16,3.543,3.543,0,0,1,1.636,1.62,4.468,4.468,0,0,1,.4,2.95h2.372a1.255,1.255,0,0,1,1.259,1.25v4.39a1.261,1.261,0,0,1-2.25.77,1.482,1.482,0,0,0-1.891-.15,1,1,0,0,0-.477.47,1.511,1.511,0,0,0,.029,1.52,1.426,1.426,0,0,0,1.214.67,1.208,1.208,0,0,0,1.125-.35,1.261,1.261,0,0,1,2.25.78v4.39A1.255,1.255,0,0,1,960.741,4314Zm-11.28-2.51h10.022v-1.12a5.856,5.856,0,0,1-.858.06,3.939,3.939,0,0,1-3.346-1.84,3.985,3.985,0,0,1-.162-3.94,3.533,3.533,0,0,1,1.646-1.64h0a4.588,4.588,0,0,1,2.72-.44v-1.06h-3.472a1.252,1.252,0,0,1-.625-2.34,1.449,1.449,0,0,0,.325-2.01,1.017,1.017,0,0,0-.472-0.46,1.523,1.523,0,0,0-1.524.03,1.41,1.41,0,0,0-.673,1.21,1.3,1.3,0,0,0,.516,1.23,1.251,1.251,0,0,1-.624,2.34h-3.473v3.33a1.259,1.259,0,0,1-2.314.68,1.469,1.469,0,0,0-1.95-.26,1.02,1.02,0,0,0-.492.48,1.509,1.509,0,0,0,.029,1.52,1.424,1.424,0,0,0,1.213.67,1.222,1.222,0,0,0,1.2-.45,1.259,1.259,0,0,1,2.314.68v3.33Z" transform="translate(-942 -4294)"/>
</svg>
