<svg xmlns="http://www.w3.org/2000/svg" width="16" height="21" viewBox="0 0 16 21">
  <metadata><?xpacket begin="﻿" id="W5M0MpCehiHzreSzNTczkc9d"?>
<x:xmpmeta xmlns:x="adobe:ns:meta/" x:xmptk="Adobe XMP Core 5.6-c138 79.159824, 2016/09/14-01:09:01        ">
   <rdf:RDF xmlns:rdf="http://www.w3.org/1999/02/22-rdf-syntax-ns#">
      <rdf:Description rdf:about=""/>
   </rdf:RDF>
</x:xmpmeta>
                                                                                                    
                                                                                                    
                                                                                                    
                                                                                                    
                                                                                                    
                                                                                                    
                                                                                                    
                                                                                                    
                                                                                                    
                                                                                                    
                                                                                                    
                                                                                                    
                                                                                                    
                                                                                                    
                                                                                                    
                                                                                                    
                                                                                                    
                                                                                                    
                                                                                                    
                                                                                                    
                           
<?xpacket end="w"?></metadata>
<defs>
    <style>
      .cls-1 {
        fill: #fff;
        fill-rule: evenodd;
      }
    </style>
  </defs>
  <path id="Фигура_33" data-name="Фигура 33" class="cls-1" d="M292.994,1059.5a1.418,1.418,0,0,0-.1-0.52l-0.018-.05c-0.037-.08-0.068-0.13-0.1-0.19l-0.042-.06a1.471,1.471,0,0,0-.168-0.21l-6.057-6.04a2.232,2.232,0,0,0-.212-0.17l-0.037-.02a1.839,1.839,0,0,0-.2-0.11l-0.063-.03a1.542,1.542,0,0,0-.513-0.1h-6.018a2.459,2.459,0,0,0-2.461,2.45v16.1a2.459,2.459,0,0,0,2.461,2.45h11.073a2.459,2.459,0,0,0,2.461-2.45Zm-6.575.91h3.6v9.62h-10.03v-15.06h4.273v3.29A1.978,1.978,0,0,0,286.419,1060.41Z" transform="translate(-277 -1052)"/>
</svg>
